\relax 
\@writefile{toc}{\contentsline {section}{\numberline {1}Introduction}{1}}
\@writefile{toc}{\contentsline {section}{\numberline {2}The Heart of the Matter}{1}}
\@writefile{toc}{\contentsline {subsection}{\numberline {2.1}More Explanation}{1}}
\@writefile{toc}{\contentsline {subsection}{\numberline {2.2}Even More}{2}}
\@writefile{toc}{\contentsline {section}{\numberline {3}Wrapping Things Up}{2}}
