\relax 
\@writefile{lot}{\contentsline {table}{\numberline {1}{\ignorespaces  Class Grades before final }}{1}}
\newlabel{ }{{1}{1}}
\@writefile{lot}{\contentsline {table}{\numberline {2}{\ignorespaces Calculated Possible Grades }}{1}}
\newlabel{ }{{2}{1}}
