\relax 
\providecommand\hyper@newdestlabel[2]{}
\providecommand\HyperFirstAtBeginDocument{\AtBeginDocument}
\HyperFirstAtBeginDocument{\ifx\hyper@anchor\@undefined
\global\let\oldcontentsline\contentsline
\gdef\contentsline#1#2#3#4{\oldcontentsline{#1}{#2}{#3}}
\global\let\oldnewlabel\newlabel
\gdef\newlabel#1#2{\newlabelxx{#1}#2}
\gdef\newlabelxx#1#2#3#4#5#6{\oldnewlabel{#1}{{#2}{#3}}}
\AtEndDocument{\ifx\hyper@anchor\@undefined
\let\contentsline\oldcontentsline
\let\newlabel\oldnewlabel
\fi}
\fi}
\global\let\hyper@last\relax 
\gdef\HyperFirstAtBeginDocument#1{#1}
\providecommand\HyField@AuxAddToFields[1]{}
\providecommand\HyField@AuxAddToCoFields[2]{}
\citation{Dickens}
\@writefile{toc}{\contentsline {section}{\numberline {1}The first section}{1}{section.1}}
\newlabel{S:1}{{1}{1}{The first section}{section.1}{}}
\newlabel{T:1}{{10}{1}{}{theorem.1.10}{}}
\citation{Grish}
\@writefile{toc}{\contentsline {section}{\numberline {2}The second section}{2}{section.2}}
\@writefile{lof}{\contentsline {figure}{\numberline {1}{\ignorespaces Some colorful circles}}{2}{figure.1}}
\newlabel{P:circles}{{1}{2}{Some colorful circles}{figure.1}{}}
\bibcite{Grish}{1}
\bibcite{Dickens}{2}
\newlabel{ref}{{2}{3}{The second section}{figure.1}{}}
\@writefile{toc}{\contentsline {section}{References}{3}{section*.2}}
